…
You can also use these functions to bind several data.frames.

## `tibble`

`tibble` is kind of similar to `data.frame`.

### Make new `tibble`

`tibble` related functionality is provided by the `tibble` or `tidiverse` packages.

Almost all of the functions that you’ll use in this book produce tibbles, as tibbles are one of the unifying features of the tidyverse. Most other R packages use regular data frames, so you might want to coerce a data frame to a tibble. You can do that with `as_tibble()`:

```R
as_tibble(iris)
#> # A tibble: 150 × 5
#>   Sepal.Length Sepal.Width Petal.Length Petal.Width Species
#>          <dbl>       <dbl>        <dbl>       <dbl> <fct>  
#> 1          5.1         3.5          1.4         0.2 setosa 
#> 2          4.9         3            1.4         0.2 setosa 
#> 3          4.7         3.2          1.3         0.2 setosa 
#> 4          4.6         3.1          1.5         0.2 setosa 
#> 5          5           3.6          1.4         0.2 setosa 
#> 6          5.4         3.9          1.7         0.4 setosa 
#> # ℹ 144 more rows
```
…
