REVIEW_01
…
xxxxxxxxxx
11

1

as_tibble(iris)

2

#> # A tibble: 150 × 5

3

#>   Sepal.Length Sepal.Width Petal.Length Petal.Width Species

4

#>          <dbl>       <dbl>        <dbl>       <dbl> <fct>  

5

#> 1          5.1         3.5          1.4         0.2 setosa 

6

#> 2          4.9         3            1.4         0.2 setosa 

7

#> 3          4.7         3.2          1.3         0.2 setosa 

8

#> 4          4.6         3.1          1.5         0.2 setosa 

9

#> 5          5           3.6          1.4         0.2 setosa 

10

#> 6          5.4         3.9          1.7         0.4 setosa 

11

#> # ℹ 144 more rows
…
12

) 

13

14

count(partyid)

15

16

#> # A tibble: 10 × 2

17

#>   partyid                   n

18

#>   <fct>                 <int>

19

#> 1 No answer               154

20

#> 2 Don't know                1

21

#> 3 Other party             393

22

#> 4 Republican, strong     2314

23

#> 5 Republican, weak       3032

24

#> 6 Independent, near rep  1791

25

#> # ℹ 4 more rows
…
